{
	"ImportPath": "mwangaza",
	"GoVersion": "go1.14",
	"GodepVersion": "v80",
	"Deps": [
		{
			"ImportPath": "github.com/AndroidStudyOpenSource/africastalking-go/sms",
			"Rev": "bdd09087bcbf8bf9392560fc331c7147e7dce1f3"
		},
		{
			"ImportPath": "github.com/AndroidStudyOpenSource/africastalking-go/util",
			"Rev": "bdd09087bcbf8bf9392560fc331c7147e7dce1f3"
		},
		{
			"ImportPath": "github.com/AndroidStudyOpenSource/mpesa-api-go",
			"Comment": "0.0.2-15-gb756218",
			"Rev": "b756218379d356004da8c6ecdf18fd5e57260b33"
		},
		{
			"ImportPath": "github.com/davecgh/go-spew/spew",
			"Comment": "v1.1.1-1-gd8f796a",
			"Rev": "d8f796af33cc11cb798c1aaeb27a4ebc5099927d"
		},
		{
			"ImportPath": "github.com/dgrijalva/jwt-go",
			"Comment": "v3.2.0-20-gdc14462",
			"Rev": "dc14462fd58732591c7fa58cc8496d6824316a82"
		},
		{
			"ImportPath": "github.com/douglasmakey/go-fcm",
			"Rev": "ddb9be53f822817936d90b5e5936e389030accd6"
		},
		{
			"ImportPath": "github.com/jinzhu/gorm",
			"Comment": "v1.9.12-3-g7ea143b",
			"Rev": "7ea143b5484fe28148d5c73cfd43b26e8a89c94e"
		},
		{
			"ImportPath": "github.com/jinzhu/gorm/dialects/postgres",
			"Comment": "v1.9.12-3-g7ea143b",
			"Rev": "7ea143b5484fe28148d5c73cfd43b26e8a89c94e"
		},
		{
			"ImportPath": "github.com/jinzhu/inflection",
			"Comment": "v1.0.0-2-g196e6ce",
			"Rev": "196e6ce06ca4513fbcfcbc35dc15f66074df47c9"
		},
		{
			"ImportPath": "github.com/julienschmidt/httprouter",
			"Comment": "v1.3.0-36-g8c9f31f",
			"Rev": "8c9f31f047a304abedb5614d4a18a843cd5f4a40"
		},
		{
			"ImportPath": "github.com/lib/pq",
			"Comment": "v1.3.0-6-g356e267",
			"Rev": "356e267cd3f45ee1303b7d8765e3583cb949950e"
		},
		{
			"ImportPath": "github.com/lib/pq/hstore",
			"Comment": "v1.3.0-6-g356e267",
			"Rev": "356e267cd3f45ee1303b7d8765e3583cb949950e"
		},
		{
			"ImportPath": "github.com/lib/pq/oid",
			"Comment": "v1.3.0-6-g356e267",
			"Rev": "356e267cd3f45ee1303b7d8765e3583cb949950e"
		},
		{
			"ImportPath": "github.com/negah/percent",
			"Rev": "ee43e92cfb0b6ae288c1d31236221b3b04e8c474"
		},
		{
			"ImportPath": "github.com/satori/go.uuid",
			"Comment": "v1.2.0-12-gb2ce238",
			"Rev": "b2ce2384e17bbe0c6d34077efa39dbab3e09123b"
		},
		{
			"ImportPath": "golang.org/x/crypto/bcrypt",
			"Rev": "056763e48d71961566155f089ac0f02f1dda9b5a"
		},
		{
			"ImportPath": "golang.org/x/crypto/blowfish",
			"Rev": "056763e48d71961566155f089ac0f02f1dda9b5a"
		}
	]
}
